
-------------------------------
Log Entry : 14:11:39 Sunday, September 23, 2012
  :
  :Login:  
  un  = lynn103  tid = 29

-------------------------------
Log Entry : 14:14:18 Sunday, September 23, 2012
  :
  :Login:  
  un  = lynn103  tid = 29

-------------------------------
Log Entry : 14:19:43 Sunday, September 23, 2012
  :
  :Login:  
  un  = lynn103  tid = 29

-------------------------------
Log Entry : 14:47:12 Monday, September 24, 2012
  :
  :Login:  
  un  = lynn100  tid = 26

-------------------------------
Log Entry : 08:59:02 Friday, March 22, 2013
  :
  :Login:  
  un  = lynn100  tid = 26

-------------------------------
Log Entry : 14:17:18 Monday, March 25, 2013
  :
  :Login:  
  un  = lynn100  tid = 26

-------------------------------
Log Entry : 16:45:09 Tuesday, March 26, 2013
  :
  :Login:  
  un  = lynn100  tid = 26

-------------------------------
Log Entry : 17:00:02 Tuesday, March 26, 2013
  :
  :Login:  
  un  = lynn100  tid = 26
